{
  "key": "com.appfire.ac.react.starter",
  "name": "Atlassian Connect React Starter",
  "description": "Start project for React based Atlassian Connect Apps",
  "vendor": {
    "name": "Appfire Technologies",
    "url": "https://www.appfire.com"
  },
  "baseUrl": "https://3664787f.ngrok.io",
  "authentication": {
    "type": "none"
  },
  "enableLicensing": false,
  "scopes": [
    "READ"
  ],
  "modules": {
    "generalPages": [
      {
        "url": "/index",
        "icon": {
          "width": 80,
          "height": 80,
          "url": "/favicon.ico"
        },
        "name": {
          "value": "React Starter"
        },
        "key": "react-starter-general-page"
      }
    ]
  }
}